// =============================================================================
// Scilab ( https://www.scilab.org/ ) - This file is part of Scilab
// Copyright (C) 2016 - Scilab Enterprises - Pierre-Aimé AGNEL
//
//  This file is distributed under the same license as the Scilab package.
// =============================================================================
// <-- NO CHECK ERROR OUTPUT -->
// <-- ENGLISH IMPOSED -->
// Test the compilation of a simple toolbox with tbx_make()
// Copying the foobox from the test environment
mytb_dir = TMPDIR + "/foobox";
if isdir(mytb_dir)
    removedir(mytb_dir);
end
status = copyfile(SCI + "/modules/modules_manager/tests/tbx/foobox/", mytb_dir);
assert_checkequal(status, 1);
tbx_make(mytb_dir);
Building macros...
-- Creation of [fooboxlib] (Macros) --
genlib: Processing file: baz.sci
genlib: Processing file: foo.sci
tbx_build_localization: The module 'foobox' has no entry to be localized.
Building help...
Building the master document:
	TMPDIR\foobox\help\en_US
Building the manual file [javaHelp] in TMPDIR\foobox\help\en_US.
Generating loader.sce...
Generating unloader.sce...
Generating cleaner.sce...
exec(mytb_dir + "/loader.sce");
Start foobox
	Load macros
	Load help
clear oldlines oldmode;
b = foo("testing it works", 42);
  "testing it works"
   42.
baz("World");
  "Hello World!"
assert_checktrue(b);
// testing default compilation
mytb_dir = TMPDIR + "/testbox";
if isdir(mytb_dir)
    removedir(mytb_dir);
end
status = copyfile(SCI + "/modules/modules_manager/tests/tbx/testbox/", mytb_dir);
assert_checkequal(status, 1);
tbx_make(mytb_dir);
Building macros...
-- Creation of [testboxlib] (Macros) --
genlib: Processing file: scilab_error.sci
genlib: Processing file: scilab_sum.sci
Building sources...
   Generate a loader file
   Generate a Makefile
   Running the Makefile
   Compilation of csub.c
   Compilation of csum.c
   Compilation of multiplybypi.c
   Building shared library (be patient)
   Generate a cleaner file
   Generate a loader file
   Generate a Makefile
   Running the Makefile
   Compilation of fsum.f
   Building shared library (be patient)
   Generate a cleaner file
   Building JAR library org.scilab.contrib.toolboxskeleton.jar
   Compiling Java sources in TMPDIR\testbox\src\java
   Creating JAR archive TMPDIR\testbox\jar\org.scilab.contrib.toolboxskeleton.jar
   Create loader script for Java loader.sce
   Create cleaner script for Java cleaner.sce
Generating cleaner_src.sce...
Building gateway...
   Generate a gateway file
   Generate a loader file
   Generate a Makefile
   Running the makefile
   Compilation of sci_cerror6.c
   Compilation of sci_csub6.c
   Compilation of sci_csum6.c
   Compilation of sci_foo6.c
   Compilation of sci_multiplybypi6.c
   Compilation of testbox_c.cpp
   Compilation of testbox_c.h
   Compilation of testbox_c.hxx
   Building shared library (be patient)
   Generate a cleaner file
Generating loader_gateway.sce...
Generating cleaner_gateway.sce...
Generating localization
-- Building for "en_US" --
-- Building for "fr_FR" --
Building help...
Building the master document:
	TMPDIR\testbox\help\en_US
Building the manual file [javaHelp] in TMPDIR\testbox\help\en_US.
Generate image ./csub6_1.png from Scilab code from file csub6.xml
Generate image ./csub6_en_US_2.png from Scilab code from file csub6.xml
Generating loader.sce...
Generating unloader.sce...
Generating cleaner.sce...
exec(mytb_dir + "/loader.sce");
Start testbox
	Load macros
	Load gateways
	Load Java libraries
	Load help
clear oldlines oldmode;
b = csum6(2, 40);
assert_checkequal(b, 42);
